<?xml version="1.0" encoding="utf-8" standalone="no"?>
<!DOCTYPE svg PUBLIC "-//W3C//DTD SVG 1.1//EN"
  "http://www.w3.org/Graphics/SVG/1.1/DTD/svg11.dtd">
<!-- Created with matplotlib (https://matplotlib.org/) -->
<svg height="345.6pt" version="1.1" viewBox="0 0 460.8 345.6" width="460.8pt" xmlns="http://www.w3.org/2000/svg" xmlns:xlink="http://www.w3.org/1999/xlink">
 <metadata>
  <rdf:RDF xmlns:cc="http://creativecommons.org/ns#" xmlns:dc="http://purl.org/dc/elements/1.1/" xmlns:rdf="http://www.w3.org/1999/02/22-rdf-syntax-ns#">
   <cc:Work>
    <dc:type rdf:resource="http://purl.org/dc/dcmitype/StillImage"/>
    <dc:date>2021-01-08T08:13:20.069051</dc:date>
    <dc:format>image/svg+xml</dc:format>
    <dc:creator>
     <cc:Agent>
      <dc:title>Matplotlib v3.3.3, https://matplotlib.org/</dc:title>
     </cc:Agent>
    </dc:creator>
   </cc:Work>
  </rdf:RDF>
 </metadata>
 <defs>
  <style type="text/css">*{stroke-linecap:butt;stroke-linejoin:round;}</style>
 </defs>
 <g id="figure_1">
  <g id="patch_1">
   <path d="M 0 345.6 
L 460.8 345.6 
L 460.8 0 
L 0 0 
z
" style="fill:#ffffff;"/>
  </g>
  <g id="axes_1">
   <g id="patch_2">
    <path d="M 47.81 303.64 
L 450 303.64 
L 450 25.44 
L 47.81 25.44 
z
" style="fill:#ffffff;"/>
   </g>
   <g id="matplotlib.axis_1">
    <g id="xtick_1">
     <g id="line2d_1">
      <defs>
       <path d="M 0 0 
L 0 3.5 
" id="m9c2957ea5f" style="stroke:#000000;stroke-width:0.8;"/>
      </defs>
      <g>
       <use style="stroke:#000000;stroke-width:0.8;" x="66.091364" xlink:href="#m9c2957ea5f" y="303.64"/>
      </g>
     </g>
     <g id="text_1">
      <!-- 0.0 -->
      <g transform="translate(58.139801 318.238437)scale(0.1 -0.1)">
       <defs>
        <path d="M 31.78125 66.40625 
Q 24.171875 66.40625 20.328125 58.90625 
Q 16.5 51.421875 16.5 36.375 
Q 16.5 21.390625 20.328125 13.890625 
Q 24.171875 6.390625 31.78125 6.390625 
Q 39.453125 6.390625 43.28125 13.890625 
Q 47.125 21.390625 47.125 36.375 
Q 47.125 51.421875 43.28125 58.90625 
Q 39.453125 66.40625 31.78125 66.40625 
z
M 31.78125 74.21875 
Q 44.046875 74.21875 50.515625 64.515625 
Q 56.984375 54.828125 56.984375 36.375 
Q 56.984375 17.96875 50.515625 8.265625 
Q 44.046875 -1.421875 31.78125 -1.421875 
Q 19.53125 -1.421875 13.0625 8.265625 
Q 6.59375 17.96875 6.59375 36.375 
Q 6.59375 54.828125 13.0625 64.515625 
Q 19.53125 74.21875 31.78125 74.21875 
z
" id="DejaVuSans-48"/>
        <path d="M 10.6875 12.40625 
L 21 12.40625 
L 21 0 
L 10.6875 0 
z
" id="DejaVuSans-46"/>
       </defs>
       <use xlink:href="#DejaVuSans-48"/>
       <use x="63.623047" xlink:href="#DejaVuSans-46"/>
       <use x="95.410156" xlink:href="#DejaVuSans-48"/>
      </g>
     </g>
    </g>
    <g id="xtick_2">
     <g id="line2d_2">
      <g>
       <use style="stroke:#000000;stroke-width:0.8;" x="127.233048" xlink:href="#m9c2957ea5f" y="303.64"/>
      </g>
     </g>
     <g id="text_2">
      <!-- 0.5 -->
      <g transform="translate(119.281486 318.238437)scale(0.1 -0.1)">
       <defs>
        <path d="M 10.796875 72.90625 
L 49.515625 72.90625 
L 49.515625 64.59375 
L 19.828125 64.59375 
L 19.828125 46.734375 
Q 21.96875 47.46875 24.109375 47.828125 
Q 26.265625 48.1875 28.421875 48.1875 
Q 40.625 48.1875 47.75 41.5 
Q 54.890625 34.8125 54.890625 23.390625 
Q 54.890625 11.625 47.5625 5.09375 
Q 40.234375 -1.421875 26.90625 -1.421875 
Q 22.3125 -1.421875 17.546875 -0.640625 
Q 12.796875 0.140625 7.71875 1.703125 
L 7.71875 11.625 
Q 12.109375 9.234375 16.796875 8.0625 
Q 21.484375 6.890625 26.703125 6.890625 
Q 35.15625 6.890625 40.078125 11.328125 
Q 45.015625 15.765625 45.015625 23.390625 
Q 45.015625 31 40.078125 35.4375 
Q 35.15625 39.890625 26.703125 39.890625 
Q 22.75 39.890625 18.8125 39.015625 
Q 14.890625 38.140625 10.796875 36.28125 
z
" id="DejaVuSans-53"/>
       </defs>
       <use xlink:href="#DejaVuSans-48"/>
       <use x="63.623047" xlink:href="#DejaVuSans-46"/>
       <use x="95.410156" xlink:href="#DejaVuSans-53"/>
      </g>
     </g>
    </g>
    <g id="xtick_3">
     <g id="line2d_3">
      <g>
       <use style="stroke:#000000;stroke-width:0.8;" x="188.374732" xlink:href="#m9c2957ea5f" y="303.64"/>
      </g>
     </g>
     <g id="text_3">
      <!-- 1.0 -->
      <g transform="translate(180.42317 318.238437)scale(0.1 -0.1)">
       <defs>
        <path d="M 12.40625 8.296875 
L 28.515625 8.296875 
L 28.515625 63.921875 
L 10.984375 60.40625 
L 10.984375 69.390625 
L 28.421875 72.90625 
L 38.28125 72.90625 
L 38.28125 8.296875 
L 54.390625 8.296875 
L 54.390625 0 
L 12.40625 0 
z
" id="DejaVuSans-49"/>
       </defs>
       <use xlink:href="#DejaVuSans-49"/>
       <use x="63.623047" xlink:href="#DejaVuSans-46"/>
       <use x="95.410156" xlink:href="#DejaVuSans-48"/>
      </g>
     </g>
    </g>
    <g id="xtick_4">
     <g id="line2d_4">
      <g>
       <use style="stroke:#000000;stroke-width:0.8;" x="249.516417" xlink:href="#m9c2957ea5f" y="303.64"/>
      </g>
     </g>
     <g id="text_4">
      <!-- 1.5 -->
      <g transform="translate(241.564854 318.238437)scale(0.1 -0.1)">
       <use xlink:href="#DejaVuSans-49"/>
       <use x="63.623047" xlink:href="#DejaVuSans-46"/>
       <use x="95.410156" xlink:href="#DejaVuSans-53"/>
      </g>
     </g>
    </g>
    <g id="xtick_5">
     <g id="line2d_5">
      <g>
       <use style="stroke:#000000;stroke-width:0.8;" x="310.658101" xlink:href="#m9c2957ea5f" y="303.64"/>
      </g>
     </g>
     <g id="text_5">
      <!-- 2.0 -->
      <g transform="translate(302.706539 318.238437)scale(0.1 -0.1)">
       <defs>
        <path d="M 19.1875 8.296875 
L 53.609375 8.296875 
L 53.609375 0 
L 7.328125 0 
L 7.328125 8.296875 
Q 12.9375 14.109375 22.625 23.890625 
Q 32.328125 33.6875 34.8125 36.53125 
Q 39.546875 41.84375 41.421875 45.53125 
Q 43.3125 49.21875 43.3125 52.78125 
Q 43.3125 58.59375 39.234375 62.25 
Q 35.15625 65.921875 28.609375 65.921875 
Q 23.96875 65.921875 18.8125 64.3125 
Q 13.671875 62.703125 7.8125 59.421875 
L 7.8125 69.390625 
Q 13.765625 71.78125 18.9375 73 
Q 24.125 74.21875 28.421875 74.21875 
Q 39.75 74.21875 46.484375 68.546875 
Q 53.21875 62.890625 53.21875 53.421875 
Q 53.21875 48.921875 51.53125 44.890625 
Q 49.859375 40.875 45.40625 35.40625 
Q 44.1875 33.984375 37.640625 27.21875 
Q 31.109375 20.453125 19.1875 8.296875 
z
" id="DejaVuSans-50"/>
       </defs>
       <use xlink:href="#DejaVuSans-50"/>
       <use x="63.623047" xlink:href="#DejaVuSans-46"/>
       <use x="95.410156" xlink:href="#DejaVuSans-48"/>
      </g>
     </g>
    </g>
    <g id="xtick_6">
     <g id="line2d_6">
      <g>
       <use style="stroke:#000000;stroke-width:0.8;" x="371.799786" xlink:href="#m9c2957ea5f" y="303.64"/>
      </g>
     </g>
     <g id="text_6">
      <!-- 2.5 -->
      <g transform="translate(363.848223 318.238437)scale(0.1 -0.1)">
       <use xlink:href="#DejaVuSans-50"/>
       <use x="63.623047" xlink:href="#DejaVuSans-46"/>
       <use x="95.410156" xlink:href="#DejaVuSans-53"/>
      </g>
     </g>
    </g>
    <g id="xtick_7">
     <g id="line2d_7">
      <g>
       <use style="stroke:#000000;stroke-width:0.8;" x="432.94147" xlink:href="#m9c2957ea5f" y="303.64"/>
      </g>
     </g>
     <g id="text_7">
      <!-- 3.0 -->
      <g transform="translate(424.989908 318.238437)scale(0.1 -0.1)">
       <defs>
        <path d="M 40.578125 39.3125 
Q 47.65625 37.796875 51.625 33 
Q 55.609375 28.21875 55.609375 21.1875 
Q 55.609375 10.40625 48.1875 4.484375 
Q 40.765625 -1.421875 27.09375 -1.421875 
Q 22.515625 -1.421875 17.65625 -0.515625 
Q 12.796875 0.390625 7.625 2.203125 
L 7.625 11.71875 
Q 11.71875 9.328125 16.59375 8.109375 
Q 21.484375 6.890625 26.8125 6.890625 
Q 36.078125 6.890625 40.9375 10.546875 
Q 45.796875 14.203125 45.796875 21.1875 
Q 45.796875 27.640625 41.28125 31.265625 
Q 36.765625 34.90625 28.71875 34.90625 
L 20.21875 34.90625 
L 20.21875 43.015625 
L 29.109375 43.015625 
Q 36.375 43.015625 40.234375 45.921875 
Q 44.09375 48.828125 44.09375 54.296875 
Q 44.09375 59.90625 40.109375 62.90625 
Q 36.140625 65.921875 28.71875 65.921875 
Q 24.65625 65.921875 20.015625 65.03125 
Q 15.375 64.15625 9.8125 62.3125 
L 9.8125 71.09375 
Q 15.4375 72.65625 20.34375 73.4375 
Q 25.25 74.21875 29.59375 74.21875 
Q 40.828125 74.21875 47.359375 69.109375 
Q 53.90625 64.015625 53.90625 55.328125 
Q 53.90625 49.265625 50.4375 45.09375 
Q 46.96875 40.921875 40.578125 39.3125 
z
" id="DejaVuSans-51"/>
       </defs>
       <use xlink:href="#DejaVuSans-51"/>
       <use x="63.623047" xlink:href="#DejaVuSans-46"/>
       <use x="95.410156" xlink:href="#DejaVuSans-48"/>
      </g>
     </g>
    </g>
    <g id="text_8">
     <!-- t -->
     <g transform="translate(246.944844 331.916562)scale(0.1 -0.1)">
      <defs>
       <path d="M 18.3125 70.21875 
L 18.3125 54.6875 
L 36.8125 54.6875 
L 36.8125 47.703125 
L 18.3125 47.703125 
L 18.3125 18.015625 
Q 18.3125 11.328125 20.140625 9.421875 
Q 21.96875 7.515625 27.59375 7.515625 
L 36.8125 7.515625 
L 36.8125 0 
L 27.59375 0 
Q 17.1875 0 13.234375 3.875 
Q 9.28125 7.765625 9.28125 18.015625 
L 9.28125 47.703125 
L 2.6875 47.703125 
L 2.6875 54.6875 
L 9.28125 54.6875 
L 9.28125 70.21875 
z
" id="DejaVuSans-116"/>
      </defs>
      <use xlink:href="#DejaVuSans-116"/>
     </g>
    </g>
   </g>
   <g id="matplotlib.axis_2">
    <g id="ytick_1">
     <g id="line2d_8">
      <defs>
       <path d="M 0 0 
L -3.5 0 
" id="md36edd1450" style="stroke:#000000;stroke-width:0.8;"/>
      </defs>
      <g>
       <use style="stroke:#000000;stroke-width:0.8;" x="47.81" xlink:href="#md36edd1450" y="290.994545"/>
      </g>
     </g>
     <g id="text_9">
      <!-- 0.0 -->
      <g transform="translate(24.906875 294.793764)scale(0.1 -0.1)">
       <use xlink:href="#DejaVuSans-48"/>
       <use x="63.623047" xlink:href="#DejaVuSans-46"/>
       <use x="95.410156" xlink:href="#DejaVuSans-48"/>
      </g>
     </g>
    </g>
    <g id="ytick_2">
     <g id="line2d_9">
      <g>
       <use style="stroke:#000000;stroke-width:0.8;" x="47.81" xlink:href="#md36edd1450" y="240.412727"/>
      </g>
     </g>
     <g id="text_10">
      <!-- 0.2 -->
      <g transform="translate(24.906875 244.211946)scale(0.1 -0.1)">
       <use xlink:href="#DejaVuSans-48"/>
       <use x="63.623047" xlink:href="#DejaVuSans-46"/>
       <use x="95.410156" xlink:href="#DejaVuSans-50"/>
      </g>
     </g>
    </g>
    <g id="ytick_3">
     <g id="line2d_10">
      <g>
       <use style="stroke:#000000;stroke-width:0.8;" x="47.81" xlink:href="#md36edd1450" y="189.830909"/>
      </g>
     </g>
     <g id="text_11">
      <!-- 0.4 -->
      <g transform="translate(24.906875 193.630128)scale(0.1 -0.1)">
       <defs>
        <path d="M 37.796875 64.3125 
L 12.890625 25.390625 
L 37.796875 25.390625 
z
M 35.203125 72.90625 
L 47.609375 72.90625 
L 47.609375 25.390625 
L 58.015625 25.390625 
L 58.015625 17.1875 
L 47.609375 17.1875 
L 47.609375 0 
L 37.796875 0 
L 37.796875 17.1875 
L 4.890625 17.1875 
L 4.890625 26.703125 
z
" id="DejaVuSans-52"/>
       </defs>
       <use xlink:href="#DejaVuSans-48"/>
       <use x="63.623047" xlink:href="#DejaVuSans-46"/>
       <use x="95.410156" xlink:href="#DejaVuSans-52"/>
      </g>
     </g>
    </g>
    <g id="ytick_4">
     <g id="line2d_11">
      <g>
       <use style="stroke:#000000;stroke-width:0.8;" x="47.81" xlink:href="#md36edd1450" y="139.249091"/>
      </g>
     </g>
     <g id="text_12">
      <!-- 0.6 -->
      <g transform="translate(24.906875 143.04831)scale(0.1 -0.1)">
       <defs>
        <path d="M 33.015625 40.375 
Q 26.375 40.375 22.484375 35.828125 
Q 18.609375 31.296875 18.609375 23.390625 
Q 18.609375 15.53125 22.484375 10.953125 
Q 26.375 6.390625 33.015625 6.390625 
Q 39.65625 6.390625 43.53125 10.953125 
Q 47.40625 15.53125 47.40625 23.390625 
Q 47.40625 31.296875 43.53125 35.828125 
Q 39.65625 40.375 33.015625 40.375 
z
M 52.59375 71.296875 
L 52.59375 62.3125 
Q 48.875 64.0625 45.09375 64.984375 
Q 41.3125 65.921875 37.59375 65.921875 
Q 27.828125 65.921875 22.671875 59.328125 
Q 17.53125 52.734375 16.796875 39.40625 
Q 19.671875 43.65625 24.015625 45.921875 
Q 28.375 48.1875 33.59375 48.1875 
Q 44.578125 48.1875 50.953125 41.515625 
Q 57.328125 34.859375 57.328125 23.390625 
Q 57.328125 12.15625 50.6875 5.359375 
Q 44.046875 -1.421875 33.015625 -1.421875 
Q 20.359375 -1.421875 13.671875 8.265625 
Q 6.984375 17.96875 6.984375 36.375 
Q 6.984375 53.65625 15.1875 63.9375 
Q 23.390625 74.21875 37.203125 74.21875 
Q 40.921875 74.21875 44.703125 73.484375 
Q 48.484375 72.75 52.59375 71.296875 
z
" id="DejaVuSans-54"/>
       </defs>
       <use xlink:href="#DejaVuSans-48"/>
       <use x="63.623047" xlink:href="#DejaVuSans-46"/>
       <use x="95.410156" xlink:href="#DejaVuSans-54"/>
      </g>
     </g>
    </g>
    <g id="ytick_5">
     <g id="line2d_12">
      <g>
       <use style="stroke:#000000;stroke-width:0.8;" x="47.81" xlink:href="#md36edd1450" y="88.667273"/>
      </g>
     </g>
     <g id="text_13">
      <!-- 0.8 -->
      <g transform="translate(24.906875 92.466491)scale(0.1 -0.1)">
       <defs>
        <path d="M 31.78125 34.625 
Q 24.75 34.625 20.71875 30.859375 
Q 16.703125 27.09375 16.703125 20.515625 
Q 16.703125 13.921875 20.71875 10.15625 
Q 24.75 6.390625 31.78125 6.390625 
Q 38.8125 6.390625 42.859375 10.171875 
Q 46.921875 13.96875 46.921875 20.515625 
Q 46.921875 27.09375 42.890625 30.859375 
Q 38.875 34.625 31.78125 34.625 
z
M 21.921875 38.8125 
Q 15.578125 40.375 12.03125 44.71875 
Q 8.5 49.078125 8.5 55.328125 
Q 8.5 64.0625 14.71875 69.140625 
Q 20.953125 74.21875 31.78125 74.21875 
Q 42.671875 74.21875 48.875 69.140625 
Q 55.078125 64.0625 55.078125 55.328125 
Q 55.078125 49.078125 51.53125 44.71875 
Q 48 40.375 41.703125 38.8125 
Q 48.828125 37.15625 52.796875 32.3125 
Q 56.78125 27.484375 56.78125 20.515625 
Q 56.78125 9.90625 50.3125 4.234375 
Q 43.84375 -1.421875 31.78125 -1.421875 
Q 19.734375 -1.421875 13.25 4.234375 
Q 6.78125 9.90625 6.78125 20.515625 
Q 6.78125 27.484375 10.78125 32.3125 
Q 14.796875 37.15625 21.921875 38.8125 
z
M 18.3125 54.390625 
Q 18.3125 48.734375 21.84375 45.5625 
Q 25.390625 42.390625 31.78125 42.390625 
Q 38.140625 42.390625 41.71875 45.5625 
Q 45.3125 48.734375 45.3125 54.390625 
Q 45.3125 60.0625 41.71875 63.234375 
Q 38.140625 66.40625 31.78125 66.40625 
Q 25.390625 66.40625 21.84375 63.234375 
Q 18.3125 60.0625 18.3125 54.390625 
z
" id="DejaVuSans-56"/>
       </defs>
       <use xlink:href="#DejaVuSans-48"/>
       <use x="63.623047" xlink:href="#DejaVuSans-46"/>
       <use x="95.410156" xlink:href="#DejaVuSans-56"/>
      </g>
     </g>
    </g>
    <g id="ytick_6">
     <g id="line2d_13">
      <g>
       <use style="stroke:#000000;stroke-width:0.8;" x="47.81" xlink:href="#md36edd1450" y="38.085455"/>
      </g>
     </g>
     <g id="text_14">
      <!-- 1.0 -->
      <g transform="translate(24.906875 41.884673)scale(0.1 -0.1)">
       <use xlink:href="#DejaVuSans-49"/>
       <use x="63.623047" xlink:href="#DejaVuSans-46"/>
       <use x="95.410156" xlink:href="#DejaVuSans-48"/>
      </g>
     </g>
    </g>
    <g id="text_15">
     <!-- x -->
     <g transform="translate(18.827188 167.499375)rotate(-90)scale(0.1 -0.1)">
      <defs>
       <path d="M 54.890625 54.6875 
L 35.109375 28.078125 
L 55.90625 0 
L 45.3125 0 
L 29.390625 21.484375 
L 13.484375 0 
L 2.875 0 
L 24.125 28.609375 
L 4.6875 54.6875 
L 15.28125 54.6875 
L 29.78125 35.203125 
L 44.28125 54.6875 
z
" id="DejaVuSans-120"/>
      </defs>
      <use xlink:href="#DejaVuSans-120"/>
     </g>
    </g>
   </g>
   <g id="line2d_14">
    <path clip-path="url(#p6526099d8f)" d="M 47.81 38.085455 
L 450 38.085455 
" style="fill:none;stroke:#17dcd4;stroke-linecap:square;stroke-width:1.5;"/>
   </g>
   <g id="line2d_15">
    <path clip-path="url(#p6526099d8f)" d="M 47.81 164.54 
L 450 164.54 
" style="fill:none;stroke:#dc8317;stroke-linecap:square;stroke-width:1.5;"/>
   </g>
   <g id="line2d_16">
    <path clip-path="url(#p6526099d8f)" d="M 66.091364 290.994545 
L 66.091364 290.994545 
L 67.925614 283.407273 
L 69.759865 275.82 
L 71.594115 268.232727 
L 73.428366 260.645455 
L 75.262616 253.058182 
L 77.096867 245.470909 
L 78.931117 237.883636 
L 80.765368 230.296364 
L 82.599618 222.709091 
L 84.433869 215.121818 
L 86.268119 207.534545 
L 88.10237 199.947273 
L 89.936621 192.36 
L 91.770871 184.772727 
L 93.605122 177.185455 
L 95.439372 169.598182 
L 97.273623 162.010909 
L 99.107873 154.423636 
L 100.942124 146.836364 
L 102.776374 139.249091 
L 104.610625 131.661818 
L 106.444875 124.074545 
L 108.279126 116.487273 
L 110.113376 108.9 
L 111.947627 101.312727 
L 113.781877 93.725455 
L 115.616128 86.138182 
L 117.450379 78.550909 
L 119.284629 70.963636 
L 121.11888 63.376364 
L 122.95313 55.789091 
L 124.787381 48.201818 
L 126.621631 40.614545 
L 127.233048 38.085455 
" style="fill:none;stroke:#dc1717;stroke-linecap:square;stroke-width:1.5;"/>
   </g>
   <g id="line2d_17">
    <path clip-path="url(#p6526099d8f)" d="M 127.233048 164.54 
L 127.233048 164.54 
L 129.067299 156.952727 
L 130.901549 149.365455 
L 132.7358 141.778182 
L 134.57005 134.190909 
L 136.404301 126.603636 
L 138.238551 119.016364 
L 140.072802 111.429091 
L 141.907052 103.841818 
L 143.741303 96.254545 
L 145.575553 88.667273 
L 147.409804 81.08 
L 149.244054 73.492727 
L 151.078305 65.905455 
L 152.912555 58.318182 
L 154.746806 50.730909 
L 156.581057 43.143636 
L 157.80389 38.085455 
" style="fill:none;stroke:#dc1717;stroke-linecap:square;stroke-width:1.5;"/>
   </g>
   <g id="line2d_18">
    <path clip-path="url(#p6526099d8f)" d="M 127.233048 38.085455 
L 127.233048 164.54 
" style="fill:none;stroke:#dc1717;stroke-dasharray:5.55,2.4;stroke-dashoffset:0;stroke-width:1.5;"/>
    <defs>
     <path d="M 0 3 
C 0.795609 3 1.55874 2.683901 2.12132 2.12132 
C 2.683901 1.55874 3 0.795609 3 0 
C 3 -0.795609 2.683901 -1.55874 2.12132 -2.12132 
C 1.55874 -2.683901 0.795609 -3 0 -3 
C -0.795609 -3 -1.55874 -2.683901 -2.12132 -2.12132 
C -2.683901 -1.55874 -3 -0.795609 -3 0 
C -3 0.795609 -2.683901 1.55874 -2.12132 2.12132 
C -1.55874 2.683901 -0.795609 3 0 3 
z
" id="me3a79314c2" style="stroke:#dc1717;"/>
    </defs>
    <g clip-path="url(#p6526099d8f)">
     <use style="fill:#dc1717;stroke:#dc1717;" x="127.233048" xlink:href="#me3a79314c2" y="38.085455"/>
     <use style="fill:#dc1717;stroke:#dc1717;" x="127.233048" xlink:href="#me3a79314c2" y="164.54"/>
    </g>
   </g>
   <g id="line2d_19">
    <path clip-path="url(#p6526099d8f)" d="M 157.80389 164.54 
L 157.80389 164.54 
L 159.638141 156.952727 
L 161.472391 149.365455 
L 163.306642 141.778182 
L 165.140892 134.190909 
L 166.975143 126.603636 
L 168.809393 119.016364 
L 170.643644 111.429091 
L 172.477894 103.841818 
L 174.312145 96.254545 
L 176.146396 88.667273 
L 177.980646 81.08 
L 179.814897 73.492727 
L 181.649147 65.905455 
L 183.483398 58.318182 
L 185.317648 50.730909 
L 187.151899 43.143636 
L 188.374732 38.085455 
" style="fill:none;stroke:#dc1717;stroke-linecap:square;stroke-width:1.5;"/>
   </g>
   <g id="line2d_20">
    <path clip-path="url(#p6526099d8f)" d="M 157.80389 38.085455 
L 157.80389 164.54 
" style="fill:none;stroke:#dc1717;stroke-dasharray:5.55,2.4;stroke-dashoffset:0;stroke-width:1.5;"/>
    <g clip-path="url(#p6526099d8f)">
     <use style="fill:#dc1717;stroke:#dc1717;" x="157.80389" xlink:href="#me3a79314c2" y="38.085455"/>
     <use style="fill:#dc1717;stroke:#dc1717;" x="157.80389" xlink:href="#me3a79314c2" y="164.54"/>
    </g>
   </g>
   <g id="line2d_21">
    <path clip-path="url(#p6526099d8f)" d="M 188.374732 164.54 
L 188.374732 164.54 
L 190.208983 156.952727 
L 192.043234 149.365455 
L 193.877484 141.778182 
L 195.711735 134.190909 
L 197.545985 126.603636 
L 199.380236 119.016364 
L 201.214486 111.429091 
L 203.048737 103.841818 
L 204.882987 96.254545 
L 206.717238 88.667273 
L 208.551488 81.08 
L 210.385739 73.492727 
L 212.219989 65.905455 
L 214.05424 58.318182 
L 215.88849 50.730909 
L 217.722741 43.143636 
L 218.945575 38.085455 
" style="fill:none;stroke:#dc1717;stroke-linecap:square;stroke-width:1.5;"/>
   </g>
   <g id="line2d_22">
    <path clip-path="url(#p6526099d8f)" d="M 188.374732 38.085455 
L 188.374732 164.54 
" style="fill:none;stroke:#dc1717;stroke-dasharray:5.55,2.4;stroke-dashoffset:0;stroke-width:1.5;"/>
    <g clip-path="url(#p6526099d8f)">
     <use style="fill:#dc1717;stroke:#dc1717;" x="188.374732" xlink:href="#me3a79314c2" y="38.085455"/>
     <use style="fill:#dc1717;stroke:#dc1717;" x="188.374732" xlink:href="#me3a79314c2" y="164.54"/>
    </g>
   </g>
   <g id="line2d_23">
    <path clip-path="url(#p6526099d8f)" d="M 218.945575 164.54 
L 218.945575 164.54 
L 220.779825 156.952727 
L 222.614076 149.365455 
L 224.448326 141.778182 
L 226.282577 134.190909 
L 228.116827 126.603636 
L 229.951078 119.016364 
L 231.785328 111.429091 
L 233.619579 103.841818 
L 235.453829 96.254545 
L 237.28808 88.667273 
L 239.12233 81.08 
L 240.956581 73.492727 
L 242.790832 65.905455 
L 244.625082 58.318182 
L 246.459333 50.730909 
L 248.293583 43.143636 
L 249.516417 38.085455 
" style="fill:none;stroke:#dc1717;stroke-linecap:square;stroke-width:1.5;"/>
   </g>
   <g id="line2d_24">
    <path clip-path="url(#p6526099d8f)" d="M 218.945575 38.085455 
L 218.945575 164.54 
" style="fill:none;stroke:#dc1717;stroke-dasharray:5.55,2.4;stroke-dashoffset:0;stroke-width:1.5;"/>
    <g clip-path="url(#p6526099d8f)">
     <use style="fill:#dc1717;stroke:#dc1717;" x="218.945575" xlink:href="#me3a79314c2" y="38.085455"/>
     <use style="fill:#dc1717;stroke:#dc1717;" x="218.945575" xlink:href="#me3a79314c2" y="164.54"/>
    </g>
   </g>
   <g id="line2d_25">
    <path clip-path="url(#p6526099d8f)" d="M 249.516417 164.54 
L 249.516417 164.54 
L 251.350667 156.952727 
L 253.184918 149.365455 
L 255.019168 141.778182 
L 256.853419 134.190909 
L 258.68767 126.603636 
L 260.52192 119.016364 
L 262.356171 111.429091 
L 264.190421 103.841818 
L 266.024672 96.254545 
L 267.858922 88.667273 
L 269.693173 81.08 
L 271.527423 73.492727 
L 273.361674 65.905455 
L 275.195924 58.318182 
L 277.030175 50.730909 
L 278.864425 43.143636 
L 280.087259 38.085455 
" style="fill:none;stroke:#dc1717;stroke-linecap:square;stroke-width:1.5;"/>
   </g>
   <g id="line2d_26">
    <path clip-path="url(#p6526099d8f)" d="M 249.516417 38.085455 
L 249.516417 164.54 
" style="fill:none;stroke:#dc1717;stroke-dasharray:5.55,2.4;stroke-dashoffset:0;stroke-width:1.5;"/>
    <g clip-path="url(#p6526099d8f)">
     <use style="fill:#dc1717;stroke:#dc1717;" x="249.516417" xlink:href="#me3a79314c2" y="38.085455"/>
     <use style="fill:#dc1717;stroke:#dc1717;" x="249.516417" xlink:href="#me3a79314c2" y="164.54"/>
    </g>
   </g>
   <g id="line2d_27">
    <path clip-path="url(#p6526099d8f)" d="M 280.087259 164.54 
L 280.087259 164.54 
L 281.92151 156.952727 
L 283.75576 149.365455 
L 285.590011 141.778182 
L 287.424261 134.190909 
L 289.258512 126.603636 
L 291.092762 119.016364 
L 292.927013 111.429091 
L 294.761263 103.841818 
L 296.595514 96.254545 
L 298.429764 88.667273 
L 300.264015 81.08 
L 302.098265 73.492727 
L 303.932516 65.905455 
L 305.766766 58.318182 
L 307.601017 50.730909 
L 309.435268 43.143636 
L 310.658101 38.085455 
" style="fill:none;stroke:#dc1717;stroke-linecap:square;stroke-width:1.5;"/>
   </g>
   <g id="line2d_28">
    <path clip-path="url(#p6526099d8f)" d="M 280.087259 38.085455 
L 280.087259 164.54 
" style="fill:none;stroke:#dc1717;stroke-dasharray:5.55,2.4;stroke-dashoffset:0;stroke-width:1.5;"/>
    <g clip-path="url(#p6526099d8f)">
     <use style="fill:#dc1717;stroke:#dc1717;" x="280.087259" xlink:href="#me3a79314c2" y="38.085455"/>
     <use style="fill:#dc1717;stroke:#dc1717;" x="280.087259" xlink:href="#me3a79314c2" y="164.54"/>
    </g>
   </g>
   <g id="line2d_29">
    <path clip-path="url(#p6526099d8f)" d="M 310.658101 164.54 
L 310.658101 164.54 
L 312.492352 156.952727 
L 314.326602 149.365455 
L 316.160853 141.778182 
L 317.995103 134.190909 
L 319.829354 126.603636 
L 321.663604 119.016364 
L 323.497855 111.429091 
L 325.332106 103.841818 
L 327.166356 96.254545 
L 329.000607 88.667273 
L 330.834857 81.08 
L 332.669108 73.492727 
L 334.503358 65.905455 
L 336.337609 58.318182 
L 338.171859 50.730909 
L 340.00611 43.143636 
L 341.228943 38.085455 
" style="fill:none;stroke:#dc1717;stroke-linecap:square;stroke-width:1.5;"/>
   </g>
   <g id="line2d_30">
    <path clip-path="url(#p6526099d8f)" d="M 310.658101 38.085455 
L 310.658101 164.54 
" style="fill:none;stroke:#dc1717;stroke-dasharray:5.55,2.4;stroke-dashoffset:0;stroke-width:1.5;"/>
    <g clip-path="url(#p6526099d8f)">
     <use style="fill:#dc1717;stroke:#dc1717;" x="310.658101" xlink:href="#me3a79314c2" y="38.085455"/>
     <use style="fill:#dc1717;stroke:#dc1717;" x="310.658101" xlink:href="#me3a79314c2" y="164.54"/>
    </g>
   </g>
   <g id="line2d_31">
    <path clip-path="url(#p6526099d8f)" d="M 341.228943 164.54 
L 341.228943 164.54 
L 343.063194 156.952727 
L 344.897445 149.365455 
L 346.731695 141.778182 
L 348.565946 134.190909 
L 350.400196 126.603636 
L 352.234447 119.016364 
L 354.068697 111.429091 
L 355.902948 103.841818 
L 357.737198 96.254545 
L 359.571449 88.667273 
L 361.405699 81.08 
L 363.23995 73.492727 
L 365.0742 65.905455 
L 366.908451 58.318182 
L 368.742701 50.730909 
L 370.576952 43.143636 
L 371.799786 38.085455 
" style="fill:none;stroke:#dc1717;stroke-linecap:square;stroke-width:1.5;"/>
   </g>
   <g id="line2d_32">
    <path clip-path="url(#p6526099d8f)" d="M 341.228943 38.085455 
L 341.228943 164.54 
" style="fill:none;stroke:#dc1717;stroke-dasharray:5.55,2.4;stroke-dashoffset:0;stroke-width:1.5;"/>
    <g clip-path="url(#p6526099d8f)">
     <use style="fill:#dc1717;stroke:#dc1717;" x="341.228943" xlink:href="#me3a79314c2" y="38.085455"/>
     <use style="fill:#dc1717;stroke:#dc1717;" x="341.228943" xlink:href="#me3a79314c2" y="164.54"/>
    </g>
   </g>
   <g id="line2d_33">
    <path clip-path="url(#p6526099d8f)" d="M 371.799786 164.54 
L 371.799786 164.54 
L 373.634036 156.952727 
L 375.468287 149.365455 
L 377.302537 141.778182 
L 379.136788 134.190909 
L 380.971038 126.603636 
L 382.805289 119.016364 
L 384.639539 111.429091 
L 386.47379 103.841818 
L 388.30804 96.254545 
L 390.142291 88.667273 
L 391.976542 81.08 
L 393.810792 73.492727 
L 395.645043 65.905455 
L 397.479293 58.318182 
L 399.313544 50.730909 
L 401.147794 43.143636 
L 402.370628 38.085455 
" style="fill:none;stroke:#dc1717;stroke-linecap:square;stroke-width:1.5;"/>
   </g>
   <g id="line2d_34">
    <path clip-path="url(#p6526099d8f)" d="M 371.799786 38.085455 
L 371.799786 164.54 
" style="fill:none;stroke:#dc1717;stroke-dasharray:5.55,2.4;stroke-dashoffset:0;stroke-width:1.5;"/>
    <g clip-path="url(#p6526099d8f)">
     <use style="fill:#dc1717;stroke:#dc1717;" x="371.799786" xlink:href="#me3a79314c2" y="38.085455"/>
     <use style="fill:#dc1717;stroke:#dc1717;" x="371.799786" xlink:href="#me3a79314c2" y="164.54"/>
    </g>
   </g>
   <g id="line2d_35">
    <path clip-path="url(#p6526099d8f)" d="M 402.370628 164.54 
L 402.370628 164.54 
L 404.204878 156.952727 
L 406.039129 149.365455 
L 407.873379 141.778182 
L 409.70763 134.190909 
L 411.541881 126.603636 
L 413.376131 119.016364 
L 415.210382 111.429091 
L 417.044632 103.841818 
L 418.878883 96.254545 
L 420.713133 88.667273 
L 422.547384 81.08 
L 424.381634 73.492727 
L 426.215885 65.905455 
L 428.050135 58.318182 
L 429.884386 50.730909 
L 431.718636 43.143636 
" style="fill:none;stroke:#dc1717;stroke-linecap:square;stroke-width:1.5;"/>
   </g>
   <g id="line2d_36">
    <path clip-path="url(#p6526099d8f)" d="M 402.370628 38.085455 
L 402.370628 164.54 
" style="fill:none;stroke:#dc1717;stroke-dasharray:5.55,2.4;stroke-dashoffset:0;stroke-width:1.5;"/>
    <g clip-path="url(#p6526099d8f)">
     <use style="fill:#dc1717;stroke:#dc1717;" x="402.370628" xlink:href="#me3a79314c2" y="38.085455"/>
     <use style="fill:#dc1717;stroke:#dc1717;" x="402.370628" xlink:href="#me3a79314c2" y="164.54"/>
    </g>
   </g>
   <g id="patch_3">
    <path d="M 47.81 303.64 
L 47.81 25.44 
" style="fill:none;stroke:#000000;stroke-linecap:square;stroke-linejoin:miter;stroke-width:0.8;"/>
   </g>
   <g id="patch_4">
    <path d="M 450 303.64 
L 450 25.44 
" style="fill:none;stroke:#000000;stroke-linecap:square;stroke-linejoin:miter;stroke-width:0.8;"/>
   </g>
   <g id="patch_5">
    <path d="M 47.81 303.64 
L 450 303.64 
" style="fill:none;stroke:#000000;stroke-linecap:square;stroke-linejoin:miter;stroke-width:0.8;"/>
   </g>
   <g id="patch_6">
    <path d="M 47.81 25.44 
L 450 25.44 
" style="fill:none;stroke:#000000;stroke-linecap:square;stroke-linejoin:miter;stroke-width:0.8;"/>
   </g>
   <g id="text_16">
    <!-- A = [2.0, 1.0, 0.5] -->
    <g transform="translate(195.024063 19.44)scale(0.12 -0.12)">
     <defs>
      <path d="M 34.1875 63.1875 
L 20.796875 26.90625 
L 47.609375 26.90625 
z
M 28.609375 72.90625 
L 39.796875 72.90625 
L 67.578125 0 
L 57.328125 0 
L 50.6875 18.703125 
L 17.828125 18.703125 
L 11.1875 0 
L 0.78125 0 
z
" id="DejaVuSans-65"/>
      <path id="DejaVuSans-32"/>
      <path d="M 10.59375 45.40625 
L 73.1875 45.40625 
L 73.1875 37.203125 
L 10.59375 37.203125 
z
M 10.59375 25.484375 
L 73.1875 25.484375 
L 73.1875 17.1875 
L 10.59375 17.1875 
z
" id="DejaVuSans-61"/>
      <path d="M 8.59375 75.984375 
L 29.296875 75.984375 
L 29.296875 69 
L 17.578125 69 
L 17.578125 -6.203125 
L 29.296875 -6.203125 
L 29.296875 -13.1875 
L 8.59375 -13.1875 
z
" id="DejaVuSans-91"/>
      <path d="M 11.71875 12.40625 
L 22.015625 12.40625 
L 22.015625 4 
L 14.015625 -11.625 
L 7.71875 -11.625 
L 11.71875 4 
z
" id="DejaVuSans-44"/>
      <path d="M 30.421875 75.984375 
L 30.421875 -13.1875 
L 9.71875 -13.1875 
L 9.71875 -6.203125 
L 21.390625 -6.203125 
L 21.390625 69 
L 9.71875 69 
L 9.71875 75.984375 
z
" id="DejaVuSans-93"/>
     </defs>
     <use xlink:href="#DejaVuSans-65"/>
     <use x="68.408203" xlink:href="#DejaVuSans-32"/>
     <use x="100.195312" xlink:href="#DejaVuSans-61"/>
     <use x="183.984375" xlink:href="#DejaVuSans-32"/>
     <use x="215.771484" xlink:href="#DejaVuSans-91"/>
     <use x="254.785156" xlink:href="#DejaVuSans-50"/>
     <use x="318.408203" xlink:href="#DejaVuSans-46"/>
     <use x="350.195312" xlink:href="#DejaVuSans-48"/>
     <use x="413.818359" xlink:href="#DejaVuSans-44"/>
     <use x="445.605469" xlink:href="#DejaVuSans-32"/>
     <use x="477.392578" xlink:href="#DejaVuSans-49"/>
     <use x="541.015625" xlink:href="#DejaVuSans-46"/>
     <use x="572.802734" xlink:href="#DejaVuSans-48"/>
     <use x="636.425781" xlink:href="#DejaVuSans-44"/>
     <use x="668.212891" xlink:href="#DejaVuSans-32"/>
     <use x="700" xlink:href="#DejaVuSans-48"/>
     <use x="763.623047" xlink:href="#DejaVuSans-46"/>
     <use x="795.410156" xlink:href="#DejaVuSans-53"/>
     <use x="859.033203" xlink:href="#DejaVuSans-93"/>
    </g>
   </g>
   <g id="legend_1">
    <g id="patch_7">
     <path d="M 54.81 77.474375 
L 99.300625 77.474375 
Q 101.300625 77.474375 101.300625 75.474375 
L 101.300625 32.44 
Q 101.300625 30.44 99.300625 30.44 
L 54.81 30.44 
Q 52.81 30.44 52.81 32.44 
L 52.81 75.474375 
Q 52.81 77.474375 54.81 77.474375 
z
" style="fill:#ffffff;opacity:0.8;stroke:#cccccc;stroke-linejoin:miter;"/>
    </g>
    <g id="line2d_37">
     <path d="M 56.81 38.538437 
L 76.81 38.538437 
" style="fill:none;stroke:#17dcd4;stroke-linecap:square;stroke-width:1.5;"/>
    </g>
    <g id="line2d_38"/>
    <g id="text_17">
     <!-- a1 -->
     <g transform="translate(84.81 42.038437)scale(0.1 -0.1)">
      <defs>
       <path d="M 34.28125 27.484375 
Q 23.390625 27.484375 19.1875 25 
Q 14.984375 22.515625 14.984375 16.5 
Q 14.984375 11.71875 18.140625 8.90625 
Q 21.296875 6.109375 26.703125 6.109375 
Q 34.1875 6.109375 38.703125 11.40625 
Q 43.21875 16.703125 43.21875 25.484375 
L 43.21875 27.484375 
z
M 52.203125 31.203125 
L 52.203125 0 
L 43.21875 0 
L 43.21875 8.296875 
Q 40.140625 3.328125 35.546875 0.953125 
Q 30.953125 -1.421875 24.3125 -1.421875 
Q 15.921875 -1.421875 10.953125 3.296875 
Q 6 8.015625 6 15.921875 
Q 6 25.140625 12.171875 29.828125 
Q 18.359375 34.515625 30.609375 34.515625 
L 43.21875 34.515625 
L 43.21875 35.40625 
Q 43.21875 41.609375 39.140625 45 
Q 35.0625 48.390625 27.6875 48.390625 
Q 23 48.390625 18.546875 47.265625 
Q 14.109375 46.140625 10.015625 43.890625 
L 10.015625 52.203125 
Q 14.9375 54.109375 19.578125 55.046875 
Q 24.21875 56 28.609375 56 
Q 40.484375 56 46.34375 49.84375 
Q 52.203125 43.703125 52.203125 31.203125 
z
" id="DejaVuSans-97"/>
      </defs>
      <use xlink:href="#DejaVuSans-97"/>
      <use x="61.279297" xlink:href="#DejaVuSans-49"/>
     </g>
    </g>
    <g id="line2d_39">
     <path d="M 56.81 53.216562 
L 76.81 53.216562 
" style="fill:none;stroke:#dc8317;stroke-linecap:square;stroke-width:1.5;"/>
    </g>
    <g id="line2d_40"/>
    <g id="text_18">
     <!-- a2 -->
     <g transform="translate(84.81 56.716562)scale(0.1 -0.1)">
      <use xlink:href="#DejaVuSans-97"/>
      <use x="61.279297" xlink:href="#DejaVuSans-50"/>
     </g>
    </g>
    <g id="line2d_41">
     <path d="M 56.81 67.894687 
L 76.81 67.894687 
" style="fill:none;stroke:#dc1717;stroke-linecap:square;stroke-width:1.5;"/>
    </g>
    <g id="line2d_42"/>
    <g id="text_19">
     <!-- x -->
     <g transform="translate(84.81 71.394687)scale(0.1 -0.1)">
      <use xlink:href="#DejaVuSans-120"/>
     </g>
    </g>
   </g>
  </g>
 </g>
 <defs>
  <clipPath id="p6526099d8f">
   <rect height="278.2" width="402.19" x="47.81" y="25.44"/>
  </clipPath>
 </defs>
</svg>
